{
	"FILENAME": "configuracionBD.json",
	"SECRET_KEY": "h!549k_d^zvg+c+!0*vz*k(t8q7-q_)85jzw5yur-#l09!4td(",
	"DATABASES_NAME": "proyectowww",
	"DATABASES_USER": "ivanmvr",
	"DATABASES_PASSWORD": "ivan1234",
	"DATABASES_HOST": "localhost",
	"DATABASES_PORT": "",
	"EMAIL_HOST_USER": "lolo@gmail.com",
	"EMAIL_HOST_PASSWORD": "yolo",
	"EMAIL_HOST": "smtp.gmail.com",
	"EMAIL_PORT": 587,
	"EMAIL_USE_TLS" : true,
	"EMAIL_TIMEOUT" : 3

}
